Cheapest Electric Cars
…
Kategorize_Data_pca

## # A tibble: 123 x 5
##    TopSpeed_KM_H Range_H Efficiency_WH_KM FastChargeSpeed PriceinGermany_EURO
##            <dbl>   <dbl>            <dbl>           <dbl>               <dbl>
##  1           260     390              215             860              186336
##  2           250     405              210             810              138200
##  3           410     970              206             920              215000
##  4           241     430              177             720               66965
##  5           260     400              209             840              153016
##  6           250     375              189             750              106487
##  7           250     435              192             910              113008
##  8           190     460              261             710               55000
##  9           210     750              267             710               75000
## 10           210     320              270             510               93800
## # ... with 113 more rows
…
